37	464
0	53|0.184379	55|0.336460	56|0.305818	57|0.222870	58|0.126756	60|0.232358	64|0.102497	66|0.114635	67|0.346508	68|0.448010	69|0.545917	70|0.303381	71|0.243937	74|0.133413	75|0.127582	105|0.112832	108|0.226612	110|0.266175	112|0.117426	165|0.162624	171|0.145285	206|0.276272	207|0.293525	208|0.176701	218|0.291479	219|0.109265	220|0.321305	267|0.116853	270|0.131049	273|0.313683	274|0.142306	276|0.425974	277|0.353225	278|0.104323	281|0.126723	342|0.131341	343|0.127252	344|0.161337	413|0.116207
1	55|0.248041	56|0.176739	57|0.210277	58|0.104995	60|0.242992	66|0.192218	68|0.859274	69|0.467207	70|0.321643	71|0.297990	74|0.152819	108|0.155431	110|0.173055	165|0.105305	205|0.195754	207|0.356725	208|0.162312	215|0.100961	218|0.252660	219|0.101963	220|0.178053	273|0.118191	274|0.117086	275|0.365558	276|0.123420	277|0.262577	342|0.111941	343|0.141389	344|0.181701	413|0.121111
2	55|0.232845	56|0.146586	57|0.172538	60|0.234854	67|0.226139	68|0.533668	69|0.295534	70|0.324561	71|0.142989	73|0.102619	108|0.139168	110|0.213310	165|0.119017	171|0.118923	206|0.111954	207|0.270746	218|0.237327	220|0.170944	273|0.224102	275|0.108829	276|0.265715	277|0.223391	278|0.116883
3	55|0.229157	56|0.105576	57|0.205883	60|0.166458	66|0.186409	68|0.784299	69|0.427213	70|0.282433	71|0.264133	108|0.126175	110|0.138428	205|0.138205	207|0.299578	208|0.102528	218|0.151881	220|0.133978	273|0.110256	274|0.123080	275|0.219003	276|0.106002	277|0.200893	341|0.110011	343|0.100037	344|0.102135	346|0.108857
4	55|0.369514	56|0.162396	57|0.190747	58|0.131976	60|0.183575	65|0.145686	66|0.243549	67|0.114085	68|0.779767	69|0.393958	70|0.402048	71|0.320028	108|0.131807	110|0.138919	165|0.100654	171|0.123222	207|0.211180	218|0.113717	220|0.100106	275|0.123754	276|0.103015	277|0.144630	341|0.100938	344|0.227689	346|0.111721
5	55|0.436253	56|0.162202	57|0.168081	60|0.223735	63|0.115108	65|0.149075	66|0.188265	67|0.251235	68|0.722560	69|0.447893	70|0.408858	71|0.195271	72|0.137690	73|0.118551	74|0.154455	108|0.134123	110|0.159794	165|0.118517	171|0.115916	207|0.184161	218|0.197866	220|0.171719	221|0.112064	273|0.144624	276|0.147507	277|0.131788	281|0.100024	344|0.299973	346|0.126432
6	55|0.400714	56|0.131394	57|0.194908	58|0.141595	60|0.221384	63|0.111783	66|0.222830	68|0.967272	69|0.574237	70|0.375950	71|0.348226	74|0.150508	108|0.105835	205|0.101681	207|0.190933	218|0.172785	219|0.108245	220|0.134347	275|0.207631	277|0.136400	342|0.104173	343|0.124564	344|0.328528	346|0.104052
7	55|0.530768	56|0.225155	57|0.130617	60|0.212091	64|0.110435	65|0.129577	66|0.183474	67|0.263494	68|0.674545	69|0.390499	70|0.422317	71|0.216202	72|0.132570	73|0.127536	74|0.134976	108|0.112045	110|0.137661	207|0.155272	218|0.236607	220|0.175067	221|0.111971	273|0.116615	276|0.153748	277|0.146130	342|0.124755	344|0.250476
8	53|0.129781	55|0.393258	56|0.127406	57|0.175780	60|0.188977	65|0.111729	66|0.248035	67|0.128046	68|0.825566	69|0.466021	70|0.400216	71|0.325820	72|0.114797	108|0.124703	205|0.105286	207|0.172828	218|0.209579	220|0.161433	273|0.105396	275|0.162925	277|0.137162	281|0.103539	342|0.106405	344|0.326915	346|0.113860
9	55|0.418292	56|0.119098	57|0.223229	58|0.164106	60|0.126718	64|0.116387	66|0.252907	68|0.826831	69|0.492588	70|0.396435	71|0.354998	108|0.120799	110|0.104870	207|0.149014	218|0.196807	220|0.109104	275|0.160711	277|0.141629	341|0.107429	342|0.126895	344|0.318460	346|0.109251
10	53|0.112547	55|0.419947	56|0.159753	57|0.143299	60|0.154468	66|0.134966	67|0.267947	68|0.616762	69|0.420581	70|0.384638	75|0.106887	108|0.109901	110|0.119660	171|0.102612	207|0.173718	218|0.233195	220|0.122849	221|0.102621	273|0.146157	276|0.129021	277|0.122294	344|0.225975	345|0.103815	346|0.105009
11	54|0.148744	55|0.275844	56|0.177861	57|0.115525	59|0.112860	60|0.140368	66|0.145758	67|0.183063	68|0.615247	69|0.460768	70|0.296362	71|0.167967	207|0.117780	218|0.142666	275|0.106921	344|0.207916
12	55|0.138566	68|0.160226	218|0.115883
13	68|0.104666	218|0.119981
14	68|0.136550	69|0.138257	70|0.141813
15	68|0.101809	69|0.156862	70|0.142681
16	68|0.116846
17
18	53|0.314457	54|0.135196	55|0.705791	56|0.323895	57|0.422485	58|0.155890	60|0.313122	66|0.124991	67|0.433870	68|0.555170	69|0.646404	70|0.318836	71|0.235813	74|0.135573	75|0.109482	78|0.113744	95|0.108588	110|0.110056	165|0.146554	171|0.111466	206|0.231511	207|0.254165	208|0.156279	212|0.126475	215|0.152095	216|0.111336	218|0.259810	220|0.396077	221|0.132069	222|0.112888	225|0.124825	226|0.100836	273|0.188355	276|0.204127	277|0.129742	335|0.107497	343|0.143897	344|0.288904	345|0.168733	346|0.107182
19	53|0.190178	54|0.166908	55|0.393129	56|0.217525	57|0.291047	58|0.158210	60|0.287126	61|0.111842	63|0.112919	66|0.198272	68|1.000000	69|0.512788	70|0.369666	71|0.298651	73|0.107594	74|0.152829	205|0.197893	207|0.353653	208|0.167258	215|0.121508	218|0.204498	219|0.136475	220|0.237171	275|0.138549	277|0.111180	343|0.187571	344|0.372952
20	53|0.175435	55|0.577480	56|0.307336	57|0.237463	60|0.282734	63|0.140391	66|0.113217	67|0.247346	68|0.612082	69|0.293506	70|0.317872	71|0.141755	74|0.102012	165|0.101546	205|0.109846	206|0.105549	207|0.207946	215|0.101359	218|0.267742	220|0.281612	221|0.145333	273|0.127329	276|0.126938	277|0.125952	342|0.131369	344|0.200837
21	53|0.206816	54|0.102013	55|0.392840	56|0.243602	57|0.397587	58|0.186039	59|0.124231	60|0.238116	64|0.112593	66|0.192963	68|0.740228	69|0.354831	70|0.280982	71|0.203142	205|0.133886	207|0.237363	215|0.132332	218|0.230932	220|0.221026	275|0.144658	277|0.150459	341|0.119909	342|0.107032	343|0.168363	344|0.294996	346|0.120712
22	53|0.214907	54|0.103845	55|0.480941	56|0.302401	57|0.438836	58|0.193765	59|0.141988	60|0.146310	65|0.102624	66|0.191877	68|0.648011	69|0.323224	70|0.271398	71|0.259637	205|0.138499	207|0.203766	208|0.114400	218|0.196932	220|0.195164	221|0.102994	223|0.107459	275|0.155159	277|0.145518	341|0.125926	342|0.143964	343|0.119121	344|0.261917	346|0.125049
23	53|0.193019	55|0.653576	56|0.348591	57|0.402030	60|0.286794	61|0.122062	67|0.249605	68|0.510919	69|0.299927	70|0.291530	71|0.122975	207|0.224902	218|0.223387	220|0.242082	221|0.193426	273|0.101367	276|0.119098	277|0.103527	342|0.131285	343|0.112206	344|0.226638	346|0.131055
24	54|0.200083	55|0.369185	56|0.358069	57|0.440691	58|0.176161	60|0.308211	61|0.133290	63|0.115913	66|0.148224	68|0.762816	69|0.408823	70|0.225153	71|0.242417	74|0.101613	205|0.140882	207|0.245681	208|0.153108	215|0.101761	218|0.171591	219|0.126224	220|0.202449	275|0.129394	277|0.110556	341|0.112798	342|0.120186	343|0.160895	344|0.319192
25	53|0.214419	55|0.622921	56|0.418821	57|0.453448	58|0.128474	60|0.234508	65|0.106115	66|0.166104	67|0.122847	68|0.548810	69|0.227309	70|0.307927	71|0.191866	72|0.117524	74|0.126944	207|0.226548	218|0.245671	220|0.239564	221|0.160739	276|0.108540	277|0.125130	342|0.134113	343|0.108059	344|0.205046	346|0.100343
26	53|0.218981	55|0.532364	56|0.371777	57|0.469644	58|0.136414	59|0.157720	60|0.202300	65|0.131961	66|0.159880	67|0.150431	68|0.562499	69|0.268087	70|0.282731	71|0.169194	74|0.110559	205|0.139283	207|0.219735	218|0.220719	220|0.222762	221|0.115912	275|0.107416	277|0.148105	341|0.114483	342|0.155637	343|0.110642	344|0.262878	346|0.109657
27	53|0.173879	54|0.133008	55|0.468549	56|0.368721	57|0.482755	58|0.191867	60|0.185470	65|0.100365	66|0.157443	68|0.620493	69|0.341526	70|0.274287	71|0.251705	205|0.119576	207|0.196057	208|0.117164	218|0.183024	219|0.109942	220|0.153894	275|0.135077	277|0.140360	341|0.119825	342|0.153794	343|0.108429	344|0.240124
